<?xml version="1.0" encoding="utf-8"?>
<!-- Generator: Adobe Illustrator 24.0.2, SVG Export Plug-In . SVG Version: 6.00 Build 0)  -->
<svg version="1.1" id="Layer_1" xmlns="http://www.w3.org/2000/svg" xmlns:xlink="http://www.w3.org/1999/xlink" x="0px" y="0px"
	 viewBox="0 0 230.4 95" style="enable-background:new 0 0 230.4 95;" xml:space="preserve">
<style type="text/css">
	.st0{fill:#FFFFFF;}
	.st1{fill:#929191;}
	.st2{fill:#D9D9D9;}
	.st3{fill:#575756;}
	.st4{fill:#BCBCBB;}
	.st5{fill:#7C7B7B;}
</style>
<g>
	<g>
		<g>
			<g>
				<path class="st0" d="M88.1,51c-0.4-3-3.3-5.2-6.5-5.2c-5.9,0-8.1,5-8.1,10.3c0,5,2.2,10,8.1,10c4,0,6.3-2.8,6.8-6.7h6.4
					c-0.7,7.5-5.8,12.3-13.2,12.3c-9.3,0-14.7-6.9-14.7-15.6c0-8.9,5.5-15.8,14.7-15.8c6.6,0,12.1,3.9,12.9,10.8L88.1,51L88.1,51z"
					/>
				<path class="st0" d="M97.1,49.2h5.7v4h0.1c1.1-2.7,4-4.6,6.9-4.6c0.4,0,0.9,0.1,1.3,0.2v5.5c-0.5-0.1-1.4-0.2-2.1-0.2
					c-4.4,0-5.9,3.1-5.9,7v9.8h-6V49.2z"/>
				<path class="st0" d="M122.4,48.6c6.8,0,11.2,4.5,11.2,11.5c0,6.9-4.4,11.4-11.2,11.4s-11.2-4.5-11.2-11.4
					C111.2,53.1,115.6,48.6,122.4,48.6z M122.4,67c4.1,0,5.3-3.5,5.3-6.9c0-3.5-1.2-7-5.3-7c-4,0-5.2,3.5-5.2,7
					C117.2,63.5,118.4,67,122.4,67z"/>
				<path class="st0" d="M140.6,63.8c0,2.6,2.2,3.7,4.6,3.7c1.7,0,3.9-0.7,3.9-2.8c0-1.8-2.5-2.4-6.8-3.4c-3.4-0.8-6.9-2-6.9-5.8
					c0-5.5,4.8-7,9.4-7c4.7,0,9.1,1.6,9.6,6.9h-5.7c-0.2-2.3-1.9-2.9-4.1-2.9c-1.3,0-3.3,0.3-3.3,2c0,2.1,3.4,2.4,6.8,3.2
					c3.5,0.8,6.9,2.1,6.9,6.1c0,5.7-5,7.6-9.9,7.6c-5,0-9.9-1.9-10.2-7.6C134.9,63.8,140.6,63.8,140.6,63.8z"/>
				<path class="st0" d="M162.3,63.8c0,2.6,2.2,3.7,4.6,3.7c1.7,0,3.9-0.7,3.9-2.8c0-1.8-2.5-2.4-6.8-3.4c-3.4-0.8-6.9-2-6.9-5.8
					c0-5.5,4.8-7,9.4-7c4.7,0,9.1,1.6,9.6,6.9h-5.7c-0.2-2.3-1.9-2.9-4.1-2.9c-1.3,0-3.3,0.3-3.3,2c0,2.1,3.4,2.4,6.8,3.2
					c3.5,0.8,6.9,2.1,6.9,6.1c0,5.7-5,7.6-9.9,7.6c-5,0-9.9-1.9-10.2-7.6C156.6,63.8,162.3,63.8,162.3,63.8z"/>
				<path class="st0" d="M178.7,49.2h5.7v4h0.1c1.1-2.7,4-4.6,6.9-4.6c0.4,0,0.9,0.1,1.3,0.2v5.5c-0.5-0.1-1.4-0.2-2.1-0.2
					c-4.4,0-5.9,3.1-5.9,7v9.8h-6V49.2z"/>
				<path class="st0" d="M199.2,61.5c0.2,3.8,2,5.5,5.3,5.5c2.4,0,4.3-1.5,4.7-2.8h5.2c-1.7,5.1-5.2,7.3-10.2,7.3
					c-6.8,0-11.1-4.7-11.1-11.4c0-6.5,4.5-11.5,11.1-11.5c7.4,0,11,6.2,10.5,12.9H199.2z M208.9,57.7c-0.5-3-1.8-4.6-4.7-4.6
					c-3.8,0-4.9,2.9-5,4.6H208.9z"/>
				<path class="st0" d="M218.1,53.2h-3.6v-4h3.6v-1.7c0-3.8,2.4-6.6,7.3-6.6c1,0,2.1,0.1,3.1,0.2v4.4c-0.7-0.1-1.4-0.1-2.2-0.1
					c-1.6,0-2.3,0.7-2.3,2.5v1.3h4.1v4H224v17.7h-6V53.2H218.1z"/>
			</g>
		</g>
	</g>
</g>
<polygon class="st1" points="1.9,85.4 1.9,62.2 21,55.9 54.7,67.5 "/>
<polygon class="st2" points="35.6,38.1 1.9,49.7 21,55.9 54.7,44.3 "/>
<polygon class="st3" points="21,55.9 54.7,44.3 54.7,67.5 "/>
<polygon class="st4" points="54.7,8.6 54.7,31.8 35.6,38.1 1.9,26.5 "/>
<polygon class="st5" points="35.6,38.1 1.9,49.7 1.9,26.5 "/>
</svg>
